{
  "colors":[
    {
      "id": 0,
      "hexadecimal": "#ff0000",
      "name": "",
      "family": ""
    },
    {
      "id": 1,
      "hexadecimal": "#a00187",
      "name": "",
      "family": ""
    },
    {
      "id": 2,
      "hexadecimal": "#FFE29D",
      "name": "",
      "family": ""
    },
    {
      "id": 3,
      "hexadecimal": "#8F33EE",
      "name": "",
      "family": ""
    },
    {
      "id": 4,
      "hexadecimal": "#FF0055",
      "name": "",
      "family": ""
    },
    {
      "id": 5,
      "hexadecimal": "#32dda2",
      "name": "",
      "family": ""
    },
    {
      "id": 6,
      "hexadecimal": "#36AFDD",
      "name": "",
      "family": ""
    }
  ]
}